^C:\USERS\LORDKOPAKOS\DOCUMENTS\VISUAL STUDIO 2015\PROJECTS\ARKANOID\ARKANOID\MAIN.CPP|C:\USERS\LORDKOPAKOS\DOCUMENTS\VISUAL STUDIO 2015\PROJECTS\ARKANOID\ARKANOID\MENUMAIN.CPP
C:\USERS\LORDKOPAKOS\DOCUMENTS\VISUAL STUDIO 2015\PROJECTS\ARKANOID\ARKANOID\DEBUG\VC140.PDB
C:\USERS\LORDKOPAKOS\DOCUMENTS\VISUAL STUDIO 2015\PROJECTS\ARKANOID\ARKANOID\DEBUG\MENUMAIN.OBJ
C:\USERS\LORDKOPAKOS\DOCUMENTS\VISUAL STUDIO 2015\PROJECTS\ARKANOID\ARKANOID\DEBUG\MAIN.OBJ
^C:\USERS\LORDKOPAKOS\DOCUMENTS\VISUAL STUDIO 2015\PROJECTS\ARKANOID\ARKANOID\AUTHOR.CPP|C:\USERS\LORDKOPAKOS\DOCUMENTS\VISUAL STUDIO 2015\PROJECTS\ARKANOID\ARKANOID\MAIN.CPP|C:\USERS\LORDKOPAKOS\DOCUMENTS\VISUAL STUDIO 2015\PROJECTS\ARKANOID\ARKANOID\MENUMAIN.CPP
C:\USERS\LORDKOPAKOS\DOCUMENTS\VISUAL STUDIO 2015\PROJECTS\ARKANOID\ARKANOID\DEBUG\VC140.PDB
C:\USERS\LORDKOPAKOS\DOCUMENTS\VISUAL STUDIO 2015\PROJECTS\ARKANOID\ARKANOID\DEBUG\MAIN.OBJ
C:\USERS\LORDKOPAKOS\DOCUMENTS\VISUAL STUDIO 2015\PROJECTS\ARKANOID\ARKANOID\DEBUG\MENUMAIN.OBJ
C:\USERS\LORDKOPAKOS\DOCUMENTS\VISUAL STUDIO 2015\PROJECTS\ARKANOID\ARKANOID\DEBUG\AUTHOR.OBJ
^C:\USERS\LORDKOPAKOS\DOCUMENTS\VISUAL STUDIO 2015\PROJECTS\ARKANOID\ARKANOID\AUTHOR.CPP|C:\USERS\LORDKOPAKOS\DOCUMENTS\VISUAL STUDIO 2015\PROJECTS\ARKANOID\ARKANOID\GAME.CPP|C:\USERS\LORDKOPAKOS\DOCUMENTS\VISUAL STUDIO 2015\PROJECTS\ARKANOID\ARKANOID\MAIN.CPP|C:\USERS\LORDKOPAKOS\DOCUMENTS\VISUAL STUDIO 2015\PROJECTS\ARKANOID\ARKANOID\MENUMAIN.CPP
C:\USERS\LORDKOPAKOS\DOCUMENTS\VISUAL STUDIO 2015\PROJECTS\ARKANOID\ARKANOID\DEBUG\VC140.PDB
C:\USERS\LORDKOPAKOS\DOCUMENTS\VISUAL STUDIO 2015\PROJECTS\ARKANOID\ARKANOID\DEBUG\MAIN.OBJ
C:\USERS\LORDKOPAKOS\DOCUMENTS\VISUAL STUDIO 2015\PROJECTS\ARKANOID\ARKANOID\DEBUG\MENUMAIN.OBJ
C:\USERS\LORDKOPAKOS\DOCUMENTS\VISUAL STUDIO 2015\PROJECTS\ARKANOID\ARKANOID\DEBUG\GAME.OBJ
C:\USERS\LORDKOPAKOS\DOCUMENTS\VISUAL STUDIO 2015\PROJECTS\ARKANOID\ARKANOID\DEBUG\AUTHOR.OBJ
^C:\USERS\LORDKOPAKOS\DOCUMENTS\VISUAL STUDIO 2015\PROJECTS\ARKANOID\ARKANOID\AUTHOR.CPP
C:\USERS\LORDKOPAKOS\DOCUMENTS\VISUAL STUDIO 2015\PROJECTS\ARKANOID\ARKANOID\DEBUG\VC140.PDB
^C:\USERS\LORDKOPAKOS\DOCUMENTS\VISUAL STUDIO 2015\PROJECTS\ARKANOID\ARKANOID\GAME.CPP|C:\USERS\LORDKOPAKOS\DOCUMENTS\VISUAL STUDIO 2015\PROJECTS\ARKANOID\ARKANOID\MAIN.CPP|C:\USERS\LORDKOPAKOS\DOCUMENTS\VISUAL STUDIO 2015\PROJECTS\ARKANOID\ARKANOID\MENUMAIN.CPP
C:\USERS\LORDKOPAKOS\DOCUMENTS\VISUAL STUDIO 2015\PROJECTS\ARKANOID\ARKANOID\DEBUG\VC140.PDB
C:\USERS\LORDKOPAKOS\DOCUMENTS\VISUAL STUDIO 2015\PROJECTS\ARKANOID\ARKANOID\DEBUG\MAIN.OBJ
C:\USERS\LORDKOPAKOS\DOCUMENTS\VISUAL STUDIO 2015\PROJECTS\ARKANOID\ARKANOID\DEBUG\MENUMAIN.OBJ
C:\USERS\LORDKOPAKOS\DOCUMENTS\VISUAL STUDIO 2015\PROJECTS\ARKANOID\ARKANOID\DEBUG\GAME.OBJ
^C:\USERS\LORDKOPAKOS\DOCUMENTS\VISUAL STUDIO 2015\PROJECTS\ARKANOID\ARKANOID\GAME.CPP
C:\USERS\LORDKOPAKOS\DOCUMENTS\VISUAL STUDIO 2015\PROJECTS\ARKANOID\ARKANOID\DEBUG\VC140.PDB
^C:\USERS\LORDKOPAKOS\DOCUMENTS\VISUAL STUDIO 2015\PROJECTS\ARKANOID\ARKANOID\MENUMAIN.CPP
C:\USERS\LORDKOPAKOS\DOCUMENTS\VISUAL STUDIO 2015\PROJECTS\ARKANOID\ARKANOID\DEBUG\VC140.PDB
^C:\USERS\LORDKOPAKOS\DOCUMENTS\VISUAL STUDIO 2015\PROJECTS\ARKANOID\ARKANOID\MAIN.CPP
C:\USERS\LORDKOPAKOS\DOCUMENTS\VISUAL STUDIO 2015\PROJECTS\ARKANOID\ARKANOID\DEBUG\VC140.PDB
^C:\USERS\LORDKOPAKOS\APPDATA\LOCAL\TEMP\.NETFRAMEWORK,VERSION=V4.5.2.ASSEMBLYATTRIBUTES.CPP
C:\USERS\LORDKOPAKOS\DOCUMENTS\VISUAL STUDIO 2015\PROJECTS\ARKANOID\ARKANOID\DEBUG\VC140.PDB
C:\USERS\LORDKOPAKOS\DOCUMENTS\VISUAL STUDIO 2015\PROJECTS\ARKANOID\ARKANOID\DEBUG\.NETFRAMEWORK,VERSION=V4.5.2.ASSEMBLYATTRIBUTES.OBJ
C:\USERS\LORDKOPAKOS\DOCUMENTS\VISUAL STUDIO 2015\PROJECTS\ARKANOID\ARKANOID\DEBUG\.NETFRAMEWORK,VERSION=V4.5.2.ASSEMBLYATTRIBUTES.ASM
