^C:\USERS\LORDKOPAKOS\DOCUMENTS\VISUAL STUDIO 2015\PROJECTS\KIK\KIK\GRA.CPP
C:\USERS\LORDKOPAKOS\DOCUMENTS\VISUAL STUDIO 2015\PROJECTS\KIK\KIK\DEBUG\VC140.PDB
C:\USERS\LORDKOPAKOS\DOCUMENTS\VISUAL STUDIO 2015\PROJECTS\KIK\KIK\DEBUG\GRA.OBJ
^C:\USERS\LORDKOPAKOS\APPDATA\LOCAL\TEMP\.NETFRAMEWORK,VERSION=V4.5.2.ASSEMBLYATTRIBUTES.CPP
C:\USERS\LORDKOPAKOS\DOCUMENTS\VISUAL STUDIO 2015\PROJECTS\KIK\KIK\DEBUG\VC140.PDB
C:\USERS\LORDKOPAKOS\DOCUMENTS\VISUAL STUDIO 2015\PROJECTS\KIK\KIK\DEBUG\.NETFRAMEWORK,VERSION=V4.5.2.ASSEMBLYATTRIBUTES.OBJ
C:\USERS\LORDKOPAKOS\DOCUMENTS\VISUAL STUDIO 2015\PROJECTS\KIK\KIK\DEBUG\.NETFRAMEWORK,VERSION=V4.5.2.ASSEMBLYATTRIBUTES.ASM
